[{"name":"Colchicum Chelidonium"},
{"name":"Terazosin Hydrochloride"},
{"name":"tizanidine"},
{"name":"Doxazosin"},
{"name":"Pfizerpen"},
{"name":"Oxycodone Hydrochloride"},
{"name":"Claritin"},
{"name":"Neutrogena Healthy Skin Makeup"},
{"name":"Tamsulosin Hydrochloride"},
{"name":"NHS Hoarse Cough"},
{"name":"Haloperidol"},
{"name":"Gemcitabine"},
{"name":"Gentamicin"},
{"name":"Anti Diarrheal"},
{"name":"LOBSTER"},
{"name":"Nice"},
{"name":"Omeprazole"},
{"name":"Endure 300 Cida Rinse Gel"},
{"name":"CLADOSPORIUM CLADOSPORIOIDES"},
{"name":"Oxygen"},
{"name":"Pan-Zyme-S"},
{"name":"Methotrexate Sodium"},
{"name":"triple antibiotic"},
{"name":"sunmark milk of magnesia"},
{"name":"FOSAMAX PLUS D"},
{"name":"Category III"},
{"name":"SIMPLY RIGHT BODY CARE"},
{"name":"Hanip Gargle pine fragrance"},
{"name":"HYDROCODONE BITARTRATE AND ACETAMINOPHEN"},
{"name":"Famotidine"},
{"name":"Denti-Care Denti-Freeze"},
{"name":"Soft Cheat Brome"},
{"name":"Etodolac"},
{"name":"Amturnide"},
{"name":"Azathioprine"},
{"name":"BUPROPION HYDROCHLORIDE"},
{"name":"Phenazopyridine Hydrochloride"},
{"name":"DAILY DEFLECTOR MOISTURIZER"},
{"name":"Morphine sulfate"},
{"name":"Folic Acid"},
{"name":"Care One Medicated Lip Balm in a Pot"},
{"name":"Mustard Seed"},
{"name":"Raspberry Scented Hand Sanitizer"},
{"name":"TISSEEL"},
{"name":"Up and Up Cold Flu Relief"},
{"name":"Cashew"},
{"name":"Velvet Grass"},
{"name":"Camptosar"},
{"name":"Chamomilla Kit Refill"},
{"name":"sinus congestion and pain"},
{"name":"GORDONS UREA 40"},
{"name":"CLE DE PEAU BEAUTE"},
{"name":"Colgate"},
{"name":"Ovace"},
{"name":"Bioelements"},
{"name":"Walgreens Zinc Oxide"},
{"name":"biclora"},
{"name":"Wingscale"},
{"name":"Plavix"},
{"name":"Evista"},
{"name":"Pert Plus Dandruff Plus"},
{"name":"Rimmel London"},
{"name":"Naturasil"},
{"name":"Risperidone"},
{"name":"CELLULAR RADIANCE SUNSCREEN SPF 30"},
{"name":"Venlafaxine hydrochloride"},
{"name":"Degree"},
{"name":"LBEL EFFET PARFAIT Spots Reducing Effect Foundation SPF 18 - OBSCURE 8C"},
{"name":"BeneFIX"},
{"name":"TAMSULOSIN HYDROCHLORIDE"},
{"name":"Notuss-NXD"},
{"name":"Hydrocortisone"},
{"name":"APOKYN"},
{"name":"Sore Throat Right Side"},
{"name":"Backache Relief"},
{"name":"Dandruff Shampoo"},
{"name":"Sunmark Infants Pain and Fever"},
{"name":"LBEL EFFET PARFAIT filling effect foundation SPF 10 - MEDIUM 6"},
{"name":"Sweet Golden Pear Antibacterial Hand Wash"},
{"name":"Isosorbide"},
{"name":"Clam"},
{"name":"THE YEON CMK PORE BLEMISH BC"},
{"name":"Amazonian Clay BB Tinted Moisturizer Broad Spectrum SPF 20 Sunscreen"},
{"name":"Myzilra"},
{"name":"ConRx pain Reliever"},
{"name":"Alprazolam"},
{"name":"Vinceel"},
{"name":"Nesacaine"},
{"name":"Stool Softener"},
{"name":"Flexall Pain Relieving"},
{"name":"Bicalutamide"},
{"name":"SHISEIDO SHEER AND PERFECT COMPACT (REFILL)"},
{"name":"Fentanyl"},
{"name":"Hydrocortisone Maximum Strength"},
{"name":"Renes Carbo"},
{"name":"Glycerin"},
{"name":"Systane"},
{"name":"Ear Wax Build-Up"},
{"name":"Handi-San"},
{"name":"Zebutal"},
{"name":"good neighbor pharmacy sinus"},
{"name":"Foul Bowel"},
{"name":"Diclofenac Sodium"},
{"name":"Carvedilol"},
{"name":"Oxacillin"},
{"name":"Fluocinonide"},
{"name":"Softlips Cube Strawberry"},
{"name":"LISINOPRIL"},
{"name":"All Day Allergy"},
{"name":"Codeine Sulfate"},
{"name":"Carac"},
{"name":"Curity Povidone-Iodine Scrub"},
{"name":"Ritalin"},
{"name":"Foul Bowel"},
{"name":"childrens pain and fever"},
{"name":"Armarita"},
{"name":"Naproxen Sodium"},
{"name":"Ionite APF"},
{"name":"Fiber original texture"},
{"name":"Metoprolol succinate"},
{"name":"XtraCare Foaming Hand Sanitizer"},
{"name":"Imodium AD"},
{"name":"Clozapine"},
{"name":"Lidocaine"},
{"name":"Hydralazine Hydrochloride"},
{"name":"Ziprasidone Hydrochloride"},
{"name":"Sweet Gum"},
{"name":"Tussin"},
{"name":"Oxcarbazepine"},
{"name":"Kinerase"},
{"name":"Felbatol"},
{"name":"Air Pollution Complex"},
{"name":"SODIUM CHLORIDE"},
{"name":"Simvastatin"},
{"name":"smart sense flu and severe cold and cough"},
{"name":"Fluoride"},
{"name":"Rite Aid Ultra Strength Muscle Rub"},
{"name":"Tessalon"},
{"name":"Triple Antibiotic with Pain Relief"},
{"name":"Krystexxa"},
{"name":"Epionce Ultra Shield"},
{"name":"Mucus ER"},
{"name":"OXYGEN"},
{"name":"Ruta Graveolens Kit Refill"},
{"name":"Fluorouracil"},
{"name":"Allerstat"},
{"name":"PMS"},
{"name":"Prednicarbate"},
{"name":"CY BETTER LIPS BALM Humectante para Labios con color FPS 18"},
{"name":"EUCALYPTUS GLOBULUS POLLEN"},
{"name":"Hydrocodone Bitartrate And Acetaminophen"},
{"name":"Topcare Tioconazole 1"},
{"name":"NuCort"},
{"name":"ropinirole hydrochloride"},
{"name":"SHISEIDO SUNCARE ULTIMATE"},
{"name":"Freshorize"},
{"name":"Roll On Anti-Perspirant (Alcohol Free)"},
{"name":"Neutrogena Healthy Defense SPF50"},
{"name":"OMNI"},
{"name":"Vancomycin Hydrochloride"},
{"name":"PRAVASTATIN SODIUM"},
{"name":"Guaiasorb DM"},
{"name":"Nafcillin"},
{"name":"nicotine"},
{"name":"CARE ONE"},
{"name":"Nifedipine"},
{"name":"BLADDER IRRITATION"},
{"name":"Venlafaxine Hydrochloride"},
{"name":"PUTTO ATO SECRET UV FACE"},
{"name":"Aveeno Active Naturals Hydrosport Sunscreen"},
{"name":"Raggedy Ann and Andy"},
{"name":"Triple Antibiotic"},
{"name":"All Day Allergy"},
{"name":"Theo-24"},
{"name":"Lysol"},
{"name":"Oxygen"},
{"name":"daytime"},
{"name":"FENTANYL TRANSDERMAL SYSTEM"},
{"name":"Diamond White Matte Finish Sun Protection"},
{"name":"Gas Relief"},
{"name":"Celeragesic"},
{"name":"Sanatos"},
{"name":"TRUEplus diabetics foot care"},
{"name":"SUNFLOWER POLLEN"},
{"name":"Injury - Rescue"},
{"name":"Itch Relief"},
{"name":"Nicotine"},
{"name":"Chlorpromazine"},
{"name":"Cough Relief Grape"},
{"name":"Tretinoin"},
{"name":"Mycophenolate mofetil"},
{"name":"Conex"},
{"name":"Acetaminophen And Codeine Phosphate"},
{"name":"CYZONE"},
{"name":"IQ Derma Essentials Life Without Wrinkles"},
{"name":"Shortleaf Pine Pollen"},
{"name":"Pollens - Trees, Cedar, Mountain Juniperus ashei"},
{"name":"Fluvoxamine Maleate"},
{"name":"Lisinopril"},
{"name":"FLUMAZENIL"},
{"name":"Sulfamethoxazole and Trimethoprim"},
{"name":"Diazepam"},
{"name":"Diltiazem Hydrochloride"},
{"name":"Thermazene"},
{"name":"Goats Milk"},
{"name":"Cryptotox Combo"},
{"name":"Acarbose"},
{"name":"Household Antigens"},
{"name":"Belli Acne Control Spot Treatment"},
{"name":"LINGERIE DE PEAU INVISIBLE SKIN-FUSION FOUNDATION WITH SUNSCREEN BROAD SPECTRUM SPF 20 04 BEIGE MOYEN"},
{"name":"Zee Unaspirin"},
{"name":"Koh Gen Do Maifanshi Makeup Color Base"},
{"name":"Sertraline Hydrochloride"},
{"name":"EFFET PARFAIT"},
{"name":"Degree"},
{"name":"Up and Up Nicotine"},
{"name":"CAREALL Naproxen"},
{"name":"citroma"},
{"name":"Childrens Plus Multi-Symptom Grape"},
{"name":"B4"},
{"name":"Silver Maple"},
{"name":"Perrigo Sodium Sulfacetamide and Sulfur"},
{"name":"Ideal Flawless"},
{"name":"WHOO GONGJINHYANG SEOL WHITENING JINAEK PROGRAM KIT"},
{"name":"Carbamazepine"},
{"name":"Povidone-Iodine"},
{"name":"Fluvoxamine Maleate"},
{"name":"Dandelion"},
{"name":"Albuterol"},
{"name":"Senna and Docusate Sodium"},
{"name":"NARS ALL DAY LUMINOUS FOUNDATION"},
{"name":"Bacitracin Zinc"},
{"name":"OXYGEN"},
{"name":"HYDROCODONE BITARTRATE AND ACETAMINOPHEN"},
{"name":"Haloperidol"},
{"name":"DAILY MOISTURIZING"},
{"name":"Clonazepam"},
{"name":"Tartar Control Plus"},
{"name":"Daily Moisturizing"},
{"name":"Gentle Laxative"},
{"name":"Complete Allergy Medicine"},
{"name":"Leader Sore Throat"},
{"name":"Aveeno Positively Ageless"},
{"name":"Ciclopirox"},
{"name":"Detox"},
{"name":"Mirtazapine"},
{"name":"RelCof-C"},
{"name":"Lexapro"},
{"name":"Pituitary Forte"},
{"name":"Pioglitazone Hydrochloride"},
{"name":"Glycopyrrolate"},
{"name":"Hydration"},
{"name":"WhiskCare 357"},
{"name":"Pediaderm HC"},
{"name":"Diethylpropion HCl"},
{"name":"Anticavity Fluoride Rinse"},
{"name":"Eastern Cottonwood"},
{"name":"ZIAGEN"},
{"name":"Quetiapine fumarate"},
{"name":"Sunscreen SPF 30"},
{"name":"mark"},
{"name":"AHC Revitalizing Special Gen Serum"},
{"name":"Broad Spectrum SPF 30 Up The Anti"},
{"name":"Molds, Rusts and Smuts, Pullularia pullulans"},
{"name":"Mucus Relief DM"},
{"name":"ACETAMINOPHEN AND CODEINE"},
{"name":"MedPride"},
{"name":"Pleo Not"},
{"name":"ACONITUM NAPELLUS"},
{"name":"DIGOX"},
{"name":"Sterile Vancomycin Hydrochloride"},
{"name":"GUNA-INF ALPHA"},
{"name":"Azithromycin"},
{"name":"Irbesartan"},
{"name":"Labetalol hydrochloride"},
{"name":"BOX ELDER POLLEN"},
{"name":"Pure Finish Mineral Powder Foundation SPF 20 Pure Finish 10"},
{"name":"Quinapril"},
{"name":"Benicar HCT"},
{"name":"Oxygen"},
{"name":"Cough and Cold"},
{"name":"Cultivated Wheat"},
{"name":"Sertraline"},
{"name":"Lucky Antibacterial Hand Soap"},
{"name":"Fludrocortisone Acetate"},
{"name":"AMOXICILLIN"},
{"name":"Nortriptyline Hydrochloride"},
{"name":"Fluphenazine Hydrochloride"},
{"name":"Surgicide"},
{"name":"DIORSKIN NUDE TAN BB CREME HEALTHY GLOW SKIN-PERFECTING BEAUTY BALM SUNSCREEN BROAD SPECTRUM SPF15 Tint 1"},
{"name":"GRx Dyne"},
{"name":"Tarka"},
{"name":"Dextroamphetamine Saccharate, Amphetamine Aspartate, Dextroamphetamine Sulfate and Amphetamine Sulfate"},
{"name":"Orange"},
{"name":"Allopurinol"},
{"name":"MARVEL ULTIMATE SPIDER-MAN ANTISEPTIC HAND CLEANSING BERRY SCENTED"},
{"name":"LEADER ADVANCED FORMULA EYE DROPS"},
{"name":"Antibacterial"},
{"name":"Nighttime Cold and Flu Relief Therapy"},
{"name":"Moore Medical Non Aspirin"},
{"name":"Head and Shoulders Conditioner"},
{"name":"PRIMIDONE"},
{"name":"VAQTA"},
{"name":"Fentanyl"},
{"name":"MS Contin"},
{"name":"OYSTER"},
{"name":"FreAmine HBC"},
{"name":"All Day Allergy"},
{"name":"DIETHYLPROPION HYDROCHLORIDE"},
{"name":"Cephalexin"},
{"name":"Valacyclovir Hydrochloride"},
{"name":"Furosemide"},
{"name":"Levofloxacin"},
{"name":"Isopropyl Alcohol"},
{"name":"Spironolactone"},
{"name":"Caduet"},
{"name":"Tramadol Hydrochloride"},
{"name":"Sinus Clear"},
{"name":"Kaopectate Regular Strength Vanilla Flavor Anti Diarrheal"},
{"name":"Pollens - Grasses, Grass Mix 8"},
{"name":"Antibacterial Hand Towelettes"},
{"name":"simvastatin"},
{"name":"BENZONATATE"},
{"name":"Lovastatin"},
{"name":"Geotrichum candidum"},
{"name":"Methimazole"},
{"name":"Epinastine Hydrochloride"},
{"name":"Terazosin Hydrochloride"},
{"name":"Spiny Pigweed"},
{"name":"Bupropion Hydrochloride"},
{"name":"Perphenazine"},
{"name":"CLE DE PEAU BEAUTE"},
{"name":"Ativan"},
{"name":"LIGHTFUL C SPF 30 WITH RADIANCE BOOSTER BROAD SPECTRUM SPF 30"},
{"name":"NovoLog"},
{"name":"Head and Shoulders"},
{"name":"PediaCare LongActing Cough"},
{"name":"CELEBREX"},
{"name":"Medicated Pain Relief"},
{"name":"Dover Aminophen"},
{"name":"Clorazepate Dipotassium"},
{"name":"Prevnar"},
{"name":"welby health ibuprofen"},
{"name":"Topamax"},
{"name":"Post-Dental Visit"},
{"name":"topcare nite time cold and flu relief"},
{"name":"Amantadine Hydrochloride"},
{"name":"Treatment Set TS333635"},
{"name":"Anti-Bacterial Deep Cleansing Hand"},
{"name":"Levetiracetam"},
{"name":"PRIMAQUINE PHOSPHATE"},
{"name":"Lipen 40 (Number 55)"},
{"name":"Virus 2000"},
{"name":"TRAMADOL HYDROCHLORIDE AND ACETAMINOPHEN"},
{"name":"Renacidin"},
{"name":"Benicar Hct"},
{"name":"Pain Relief PM"},
{"name":"Vancocin"},
{"name":"Ranitidine Hydrochloride"},
{"name":"Gabapentin"},
{"name":"Midol"},
{"name":"Nadolol"},
{"name":"Mustargen"},
{"name":"Senna S"},
{"name":"TOPCARE"},
{"name":"OHUI White Extreme Illuminating Pact No.10"},
{"name":"Hand Cleanse"},
{"name":"Piperacillin and Tazobactam"},
{"name":"ADENOSINE"},
{"name":"CLE DE PEAU BEAUTE SILKY FOUNDATION I"},
{"name":"loperamide hydrochloride"},
{"name":"Total Tri-Estro"},
{"name":"Hydrochlorothiazide"},
{"name":"rexall bismuth"},
{"name":"ATOMY MINERAL PACT"},
{"name":"Risperidone"},
{"name":"Liquid Oxygen"},
{"name":"Red Cedar"},
{"name":"Zonisamide"},
{"name":"OVERNIGHT PORE TIGHTENER"},
{"name":"Hydrocodone Bitartrate And Acetaminophen"},
{"name":"all day pain relief"},
{"name":"CounterAct"},
{"name":"Fludrocortisone Acetate"},
{"name":"Dysport"},
{"name":"Rhus Aconitum"},
{"name":"DIOR SNOW PROTECTION UV"},
{"name":"AHC Hydration Special Gen Cream"},
{"name":"Baclofen"},
{"name":"STERILE VANCOMYCIN HYDROCHLORIDE"},
{"name":"Preferred Plus 12 Hour Nasal"},
{"name":"Temporary Fibromyalgia Pain and Discomfort Relief"},
{"name":"Sugar Maple"},
{"name":"Antibacterial Foaming Hand Sanitizer"},
{"name":"Fludeoxyglucose"},
{"name":"Pain Relief PM"},
{"name":"Glipizide and Metformin Hydrochloride"},
{"name":"Lisinopril"},
{"name":"good sense nighttime"},
{"name":"Oxandrolone"},
{"name":"Viral Infection"},
{"name":"BANDAGE"},
{"name":"Varibar Thin Liquid"},
{"name":"Terocin"},
{"name":"healthy accents aspirin"},
{"name":"Levofloxacin"},
{"name":"Donepezil Hydrochloride"},
{"name":"Furosemide"},
{"name":"Lovenox"},
{"name":"NUTRALOX"},
{"name":"Ciprofloxacin"},
{"name":"Advanced Healing"},
{"name":"Ceftriaxone Sodium"},
{"name":"Metamucil"},
{"name":"SIRTURO"},
{"name":"Fenofibrate"},
{"name":"OxyContin"},
{"name":"American Elm"},
{"name":"DermaCort"},
{"name":"Black Walnut Pollen"},
{"name":"butalbital, acetaminophen and caffeine"},
{"name":"Ketoconazole"},
{"name":"Varicose Vein Complex"},
{"name":"Standardized Grass Pollen, Timothy"},
{"name":"Tretinoin"},
{"name":"Diltiazem HCl"},
{"name":"Progesterone Injection"},
{"name":"Pink-Bismuth"},
{"name":"Paroxetine"},
{"name":"NEOMYCIN AND POLYMYXIN B SULFATES AND DEXAMETHASONE"},
{"name":"CENTER-AL - ULMUS AMERICANA POLLEN"},
{"name":"Cold and Hot"},
{"name":"OXY Maximum Action 3 in 1 Treatment Pads"},
{"name":"ARTHROTEC"},
{"name":"ESIKA"},
{"name":"Paroxetine"},
{"name":"Sulfamethoxazole and Trimethoprim"},
{"name":"Trazodone Hydrochloride"},
{"name":"SINGULAIR"},
{"name":"Caring Alcohol"},
{"name":"Bupropion Hydrochloride"},
{"name":"Butalbital, Acetaminophen, and Caffeine"},
{"name":"Tretinoin"},
{"name":"Neomycin, Polymyxin B Sulfates and Hydrocortisone"},
{"name":"Niravam"},
{"name":"Lamotrigine"},
{"name":"Hydromorphone Hydrochloride"},
{"name":"Tramadol Hydrchloride"},
{"name":"Theophylline"},
{"name":"DR RECKEWEG BC-1"},
{"name":"Sun Shades Lip Balm"},
{"name":"AZITHROMYCIN"},
{"name":"POVIDONE-IODINE"},
{"name":"Equisetum Formica"},
{"name":"REQUIP"},
{"name":"Etoposide"},
{"name":"Bactestat"},
{"name":"Ceftriaxone Sodium"},
{"name":"Lamotrigine"},
{"name":"Norgestrel/Ethinyl Estradiol"},
{"name":"Opana"},
{"name":"Lil Drug Store Pain Relief"},
{"name":"Metformin Hydrochloride"},
{"name":"Levothyroxine Sodium"},
{"name":"Epsom Salt"},
{"name":"Metformin Hydrochloride"},
{"name":"Clindamycin Hydrochloride"},
{"name":"lisinopril"},
{"name":"Metoclopramide Hydrochloride"},
{"name":"Nalfon"},
{"name":"health mart adult tussin"},
{"name":"FRAXINUS AMERICANA POLLEN"},
{"name":"Betapace AF"},
{"name":"Fosinopril Sodium"},
{"name":"acyclovir"},
{"name":"Lidocaine Hydrochloride"},
{"name":"Lovastatin"},
{"name":"LAURA GELLER BEAUTY TUSCAN SUN SPACKLE SPF 30 PROTECTIVE UNDER MAKE-UP PRIMER PORCELAIN"},
{"name":"DermaCen Antimicrobial-T Hand"},
{"name":"Amoxicillin"},
{"name":"Colgate"},
{"name":"allergy"},
{"name":"Gentamicin"},
{"name":"LBEL EFFET PARFAIT Spots Reducing Effect Foundation SPF 18 - MEDIUM 6A"},
{"name":"ONDANSETRON"},
{"name":"Alendronate Sodium"},
{"name":"Oxygen"},
{"name":"Fosphenytoin Sodium"},
{"name":"E.E.S"},
{"name":"Clonazepam"},
{"name":"Calendula ex herba 6 Special Order"},
{"name":"ZOFRAN"},
{"name":"CPDA-1"},
{"name":"Sucralfate"},
{"name":"Antacid"},
{"name":"lisinopril"},
{"name":"CRESTOR"},
{"name":"Dye-Free Allergy"},
{"name":"Dextroamphetamine Saccharate, Amphetamine Aspartate Monohydrate, Dextroamphetamine Sulfate and Amphetamine Sulfate"},
{"name":"Hydroxyzine Hydrochloride"},
{"name":"FENTANYL TRANSDERMAL SYSTEM"},
{"name":"Select Brand Hemorrhoid"},
{"name":"Fresh Umbrian Clay Freshface Foundation SPF 20 Rio Samba"},
{"name":"Minocycline Hydrochloride"},
{"name":"Phisoderm Clear Confidence Daily Gel Face Wash"},
{"name":"LACURA"},
{"name":"Quit Nits Advance"},
{"name":"Valacyclovir Hydrochloride"},
{"name":"Ritalin"},
{"name":"Childrens"},
{"name":"Zims Advanced Cold Sore And Fever Blister Moisturizing Protectant"},
{"name":"Zicam Cold Remedy Ultra Rapidmelts"},
{"name":"Oxcarbazepine"},
{"name":"Minocin Kit"},
{"name":"Clonidine"},
{"name":"Cetirizine Hydrochloride"},
{"name":"IBU"},
{"name":"Pain Reliever"},
{"name":"Treatment Set TS333315"},
{"name":"FANAPT"},
{"name":"ConZip"},
{"name":"Alcortin"},
{"name":"Temporary Fibromyalgia Pain and Discomfort Relief"},
{"name":"Meloxicam"},
{"name":"Perfect Calming Serum"},
{"name":"HemeNatal OB"},
{"name":"Ortho Cyclen"},
{"name":"Prevacid"},
{"name":"VANCOMYCIN HYDROCHLORIDE"},
{"name":"Soothe And Cool Free"},
{"name":"Pollens - Weeds and Garden Plants, Scale, Wing (Shad) Atriplex canescens"},
{"name":"Olanzapine"},
{"name":"Ondansetron Hydrochloride"},
{"name":"TRIBIOTICLC LC"},
{"name":"Methylprednisolone"},
{"name":"Labetalol hydrochloride"},
{"name":"Delsym"},
{"name":"TEMAZEPAM"},
{"name":"Red Maple Pollen"},
{"name":"Black Oak"},
{"name":"Omeprazole"},
{"name":"CareOne Mucus Relief"},
{"name":"Santalia Clinical Daily Cleanser"},
{"name":"Insomnia"},
{"name":"Topcare Day time cold and flu relief"},
{"name":"Nite-TimeCOLD/FLU CHERRY"},
{"name":"Head and Shoulders Conditioner"},
{"name":"Gabapentin"},
{"name":"dynaFreeze"},
{"name":"Sulfamethoxazole and Trimethoprim"},
{"name":"Tartar control plus"},
{"name":"Muscle Rub"},
{"name":"Grains and Gluten Intolerances"},
{"name":"NALTREXONE HYDROCHLORIDE"},
{"name":"ARMOUR THYROID"},
{"name":"benzoyl peroxide"},
{"name":"Cefuroxime Axetil"},
{"name":"ESIKA"},
{"name":"Kadian"},
{"name":"MORPHINE SULFATE"},
{"name":"Dicyclomine"},
{"name":"Donepezil Hydrochloride"},
{"name":"BLUE SPRUCE POLLEN"},
{"name":"Signature Body"},
{"name":"Warfarin Sodium"},
{"name":"Tirosint"},
{"name":"Dulera"},
{"name":"Amlodipine and Atorvastatin"},
{"name":"GABAPENTIN"},
{"name":"CARELESS WEED POLLEN"},
{"name":"Taclonex"},
{"name":"Nitrous Oxide"},
{"name":"good sense pain relief"},
{"name":"3 Heart"},
{"name":"PAUL AND JOE SILKY SMOOTH FOUNDATION UV 103"},
{"name":"Clotrimazole"},
{"name":"Hemorrhoidal"},
{"name":"ADRENOPLEX"},
{"name":"Vasopressin"},
{"name":"Oral Assist"},
{"name":"Australian Gold"},
{"name":"Losartan Potassium"},
{"name":"NEW DOCTOR AG PLUS"},
{"name":"Live Better"},
{"name":"Rx Act Heartburn Prevention"},
{"name":"METFORMIN HYDROCHLORIDE"},
{"name":"Flu Tonic"},
{"name":"Eye Allergy Relief"},
{"name":"Gabapentin"},
{"name":"Ampicillin"},
{"name":"Clara"},
{"name":"ShopRite Childrens Ibuprofen"},
{"name":"Pretty in Paris Hand Sanitizer"},
{"name":"CORTEF"},
{"name":"Fluconazole"},
{"name":"FORTAZ"},
{"name":"Banana Boat Natural Reflect Sunscreen KIDS SPF 50"},
{"name":"Sore Throat"},
{"name":"Daytime Nighttime Cold Flu Relief"},
{"name":"Loxapine"},
{"name":"fast mucus relief"},
{"name":"Hydrochlorothiazide"},
{"name":"EXCEDRIN"},
{"name":"Compulsin"},
{"name":"Aurum Crataegus Nausea Relief"},
{"name":"PHARMACIST CHOICE ALCOHOL PREP PAD"},
{"name":"ROPINIROLE HYDROCHLORIDE"},
{"name":"nicotine"},
{"name":"daytime cough"},
{"name":"Acetaminophen"},
{"name":"Cetirizine Hydrochloride"},
{"name":"Propoxyphene Napsylate and Acetaminophen"},
{"name":"Tramadol Hydrochloride"},
{"name":"Dandruff"},
{"name":"Health Mart Cough DM"},
{"name":"Sertraline Hydrochloride"},
{"name":"Hydrogen Peroxide"},
{"name":"IASO progressive age care"},
{"name":"Pullularia"},
{"name":"Sulfacetamide Sodium"},
{"name":"Metaxalone"},
{"name":"Moexipril Hydrochloride and Hydrochlorothiazide"},
{"name":"FLURBIPROFEN SODIUM"},
{"name":"LIME"},
{"name":"AMLODIPINE BESYLATE"},
{"name":"Edarbyclor"},
{"name":"Nighttime Cough"},
{"name":"GRAVI-T"},
{"name":"Hydrocortisone"},
{"name":"Rolaids Ultra Strength Fruit"},
{"name":"Nausea"},
{"name":"Epinephrine"},
{"name":"Hand Sanitizer"},
{"name":"Ibuprofen"},
{"name":"Cardura"},
{"name":"Restless Leg"},
{"name":"Orajel Instant Relief for Teething Pain"},
{"name":"SULPHUR"},
{"name":"Gelato APF"},
{"name":"MARK."},
{"name":"Gillette Fusion ProSeries"},
{"name":"Valsartan and Hydrochlorothiazide"},
{"name":"Isosorbide Dinitrate"},
{"name":"Alprazolam"},
{"name":"SABRIL"},
{"name":"Sulindac"},
{"name":"temazepam"},
{"name":"Naproxen"},
{"name":"Less Drowsy Motion Sickness Relief"},
{"name":"Tussin DM"},
{"name":"morphine sulfate"},
{"name":"RISPERIDONE"},
{"name":"Carboplatin"},
{"name":"Megestrol Acetate"},
{"name":"Childrens Acetaminophen"},
{"name":"Carbidopa, Levodopa and Entacapone"},
{"name":"HYDROCODONE BITARTRATE AND ACETAMINOPHEN"},
{"name":"Acetaminophen"},
{"name":"CY BETTER LIPS BALM Humectante para Labios con color FPS 18"},
{"name":"Pleo Not"},
{"name":"Equate anti diarrheal"},
{"name":"IPKN Moist and Firm BB 02 Medium"},
{"name":"dicyclomine hydrochloride"},
{"name":"Paroxetine"},
{"name":"Suave"},
{"name":"Tinted Moisturizer SPF20"},
{"name":"Ignatia amara"},
{"name":"Baby Petroleum"},
{"name":"Zovia 1/35E-28"},
{"name":"ZOCOR"},
{"name":"Dream Eye"},
{"name":"AlphaNine"},
{"name":"PHENTERMINE HYDROCHLORIDE"},
{"name":"Xtreme Stick Anti-Perspirant and Deodorant"},
{"name":"Galena Larix Special Order"},
{"name":"Ketorolac Tromethamine"},
{"name":"Rasuvo"},
{"name":"Bekunis Natures Gentle Stimulant Laxative"},
{"name":"Lovastatin"},
{"name":"Carvedilol"},
{"name":"CRAB MEAT"},
{"name":"Herpecin"},
{"name":"balance-n-brighten"},
{"name":"SennaGen"},
{"name":"Desitin Multi-Purpose"},
{"name":"Omeprazole"},
{"name":"metformin hydrochloride"},
{"name":"Atracurium Besylate"},
{"name":"KLOR-CON/25"},
{"name":"Gabapentin"},
{"name":"Bisoprolol Fumarate"},
{"name":"Diclofenac Sodium"},
{"name":"HOUSE DUST"},
{"name":"Primidone"},
{"name":"HORSE HAIR AND DANDER"},
{"name":"Dr. OH PATCH"},
{"name":"TISSEEL"},
{"name":"Baby SensiGel"},
{"name":"Dextrose and Sodium Chloride"},
{"name":"Calamine Plus"},
{"name":"Sulfamethoxazole and Trimethoprim"},
{"name":"First Aid"},
{"name":"Xylocaine"},
{"name":"Genuine First Aid Industrial First Aid"},
{"name":"Amikacin Sulfate"},
{"name":"TYLENOL"},
{"name":"Carbidopa and Levodopa"},
{"name":"Atenolol and Chlorthalidone"},
{"name":"Mag-Al Plus"},
{"name":"Mucor plumbeus"},
{"name":"POWER WHITE 7"},
{"name":"Naproxen"},
{"name":"Equate Naproxen Sodium"},
{"name":"Fluconazole"},
{"name":"moist wipes"},
{"name":"Burn-B Gone OTC"},
{"name":"Ondansetron"},
{"name":"Furosemide"},
{"name":"Acticlate"},
{"name":"Target Childrens All Day Allergy Relief"},
{"name":"SPF-60"},
{"name":"Buspirone Hydrochloride"},
{"name":"Hydrocodone Bitartrate and Acetaminophen"},
{"name":"Aspirin"},
{"name":"Perrigo Seb Prev"},
{"name":"Zolpidem Tartrate"},
{"name":"INSTANT HAND SANITIZER"},
{"name":"Sulwhasoo EVENFAIR SMOOTHING FOUNDATION"},
{"name":"Lipitor"},
{"name":"Carvedilol"},
{"name":"FENTORA"},
{"name":"Relief 3"},
{"name":"BABOR HSR Lifting Decollete Mask"},
{"name":"Alcohol Prep Pad"},
{"name":"Diltiazem Hydrochloride"},
{"name":"Excedrin"},
{"name":"Cold Spot"},
{"name":"ShopRite Acid Reducer"},
{"name":"Mycophenolate Mofetil"},
{"name":"Azathioprine"},
{"name":"Shunga"},
{"name":"PURE SPRING"},
{"name":"BD Persist"},
{"name":"White Poplar"},
{"name":"Ondansetron"},
{"name":"LAMOTRIGINE"},
{"name":"mirtazapine"},
{"name":"Sodium Bicarbonate"},
{"name":"LAMOTRIGINE"},
{"name":"Sulfamethoxazole and Trimethoprim"},
{"name":"Luxury Cell Performance Eye"},
{"name":"good sense antacid"},
{"name":"Ipratropium Bromide"},
{"name":"PCMX Surgical Scrub"},
{"name":"TOPCARE"},
{"name":"Minocycline Hydrochloride"},
{"name":"ORIGINAL POWER WHITENING AND LINELESS AMPOULE"},
{"name":"Signature Antibacterial Foaming Hand"},
{"name":"Family Care Nasal Relief"},
{"name":"Hand Sanitizer"},
{"name":"Oxycodone and Acetaminophen"},
{"name":"SODIUM IODIDE I 123"},
{"name":"Standardized Mite D. pteronyssinus"},
{"name":"Oxybutynin Chloride"},
{"name":"LEVOTHYROXINE SODIUM"},
{"name":"Lisinopril"},
{"name":"Buspirone HCl"},
{"name":"Temozolomide"},
{"name":"ESTRACE"},
{"name":"Folcal DHA"},
{"name":"Rizatriptan Benzoate"},
{"name":"Topiramate"},
{"name":"Sulindac"},
{"name":"Mirtazapine"},
{"name":"CLARINS BROAD SPECTRUM SPF 30 - SUNSCREEN CARE"},
{"name":"Breakout Control"},
{"name":"Methylprednisolone Acetate"},
{"name":"First Aid Antiseptic"},
{"name":"Regular Strength Acid Reducer"},
{"name":"Kit for the Preparation of Technetium Tc99m Sestamibi"},
{"name":"Go Smile"},
{"name":"ORAL ASSIST"},
{"name":"VIGAMOX"},
{"name":"Flatulence"},
{"name":"Allopurinol"},
{"name":"Lamotrigine"},
{"name":"FRESH JUICE E"},
{"name":"Midazolam Hydrochloride"},
{"name":"Old Spice Wild Collection"},
{"name":"DermaGel"},
{"name":"Methylphenidate Hydrochloride"},
{"name":"Levofloxacin"},
{"name":"Abstral"},
{"name":"PediaCare Childrens Fever Reducer Pain Reliever Grape"},
{"name":"Restful Legs"},
{"name":"DAWNMIST FLUORIDE"},
{"name":"Lovastatin"},
{"name":"Follistim AQ"},
{"name":"Optiray"},
{"name":"Niphanoid"},
{"name":"PF ANTI-BACTERIAL HAND SANITIZING WIPES"},
{"name":"Allergy"},
{"name":"Cepacol"},
{"name":"Walgreens Pain Relieving for Boils"},
{"name":"IPKN Moist and Firm BB 01 Light"},
{"name":"Food Sensitivities"},
{"name":"Biofreeze Roll-On"},
{"name":"Divalproex Sodium"},
{"name":"FUCUS VESICULOSUS"},
{"name":"ASSURED Antiseptic Wet Wipes Vitamin E and Aloe"},
{"name":"Povidone Iodine Prep Pad"},
{"name":"SHISEIDO SUN PROTECTION COMPACT FOUNDATION (REFILL)"},
{"name":"ZALEPLON"},
{"name":"Sheer Tint"},
{"name":"WEGMANS"},
{"name":"Olanzapine"},
{"name":"Lisinopril"},
{"name":"COLAZAL"},
{"name":"Ultra Nutrition Night"},
{"name":"Antiseptic Mouth Rinse"},
{"name":"Lansoprazole"},
{"name":"cefazolin"},
{"name":"Oxygen"},
{"name":"Chlordiazepoxide Hydrochloride"},
{"name":"Theraflu"},
{"name":"Lyrica"},
{"name":"POLYMYXIN B SULFATE and TRIMETHOPRIM SULFATE"},
{"name":"Endopure Testos for Men"},
{"name":"milk of magnesia"},
{"name":"Geodon"},
{"name":"Atenolol"},
{"name":"Fiore Rx Coral Sorbet Antifungal Nail Polish"},
{"name":"California Mugwort"},
{"name":"EXCEDRIN"},
{"name":"Nighttime Sleep Aid"},
{"name":"nighttime cough"},
{"name":"Biotic-Plus"},
{"name":"Cromolyn Sodium"},
{"name":"Duloxetine"},
{"name":"Ceftriaxone Sodium"},
{"name":"Cefuroxime Axetil"},
{"name":"Fever - Infection"},
{"name":"MULTI-SYMPTOM ALLERGY"},
{"name":"DURAGESIC"},
{"name":"Diphenoxylate Hydrochloride and Atropine Sulfate"},
{"name":"Risperidone"},
{"name":"Pioglitazone Hydrochloride"},
{"name":"Sweet Golden Pear Antibacterial Hand Wash"},
{"name":"Amlodipine Besylate"},
{"name":"ROBITUSSIN TO GO COUGH AND CHEST CONGESTION DM"},
{"name":"Sildenafil"},
{"name":"Isosorbide Mononitrate"},
{"name":"HGH Plus"},
{"name":"ESIKA"},
{"name":"Lysol"},
{"name":"Flu Relief Therapy Day Time"},
{"name":"Ranitidine Hydrochloride"},
{"name":"Metronidazole"},
{"name":"Kiehls Since 1851 Dermatologist Solutions"},
{"name":"Metadate CD"},
{"name":"Anzemet"},
{"name":"Extra Strength Aspirin Free Pain Relief"},
{"name":"Haloperidol"},
{"name":"Buspirone HCl"},
{"name":"Molds, Rusts and Smuts, Stemphylium botryosum"},
{"name":"Treatment Set TS334972"},
{"name":"ARALIA QUINQUEFOLIA"},
{"name":"Pollens - Trees, Tree Mix 6"},
{"name":"Royal Mouthwash Fresh and Clean Original Mint"},
{"name":"Amoxicillin"},
{"name":"Benazepril Hydrochloride and Hydrochlorothiazide"},
{"name":"Glandulae suprarenales 4"},
{"name":"Roxicet"},
{"name":"Ziprasidone"},
{"name":"Sinus Congestion and Pain Severe"},
{"name":"Venlafaxine Hydrochloride"},
{"name":"Revlimid"},
{"name":"Calcarea Carbonica Kit Refill"},
{"name":"AllergyEase Great Lakes"},
{"name":"SILVADENE"},
{"name":"PULMICORT RESPULES"},
{"name":"Simvastatin"},
{"name":"HurriCaine"},
{"name":"Trimethoprim"},
{"name":"Zcaine Fast Acting Anesthetic"},
{"name":"Daytime Nitetime"},
{"name":"Lovastatin"},
{"name":"Plus White Plus EVERY DAY WHITENING"},
{"name":"Acetaminophen and Codeine Phosphate"},
{"name":"Oxycodone Hydrochloride"},
{"name":"GABAPENTIN"},
{"name":"OXYGEN"},
{"name":"RYNEX PE"},
{"name":"Perphenazine and Amitriptyline Hydrochloride"},
{"name":"Childrens Cold and Allergy"},
{"name":"Letrozole"},
{"name":"SUN Solar Defense Oil-free SPF 30"},
{"name":"Brome Grass"},
{"name":"Dextrose"},
{"name":"IOPE SUPER VITAL"},
{"name":"LBEL EFFET PARFAIT filling effect foundation SPF 10 - MEDIUM 5"},
{"name":"Myochrysine"},
{"name":"JUGLANS REGIA POLLEN"},
{"name":"Loxapine"},
{"name":"milk of magnesia"},
{"name":"Jantoven"},
{"name":"SANITIZER"},
{"name":"Daytime Nighttime Non-Aspirin Cold Formula Multi-Symptom"},
{"name":"healthy accents stool softener"},
{"name":"Sunmark ibuprofen"},
{"name":"Diazepam"},
{"name":"Anti Diarrheal"},
{"name":"Wingscale"},
{"name":"Doxycycline Hyclate"},
{"name":"Telmisartan and Amlodipine"},
{"name":"VANICREAM"},
{"name":"Nu Skin 180 Degree UV Block Hydrator SPF 18"},
{"name":"Sudogest PE"},
{"name":"Omeprazole"},
{"name":"Metoprolol Tartrate"},
{"name":"Flounder Sun Smacker SPF 24 Watermelon Wave"},
{"name":"Meclizine Hydrochloride"},
{"name":"Piroxicam"},
{"name":"Childrens ACCUDIAL"},
{"name":"Lyrica"},
{"name":"DDF"},
{"name":"Good Sense Acid Reducer"},
{"name":"Dizziness - Vertigo"},
{"name":"Lorazepam"},
{"name":"ecolyptus pain relieving muscle rub"},
{"name":"Orajel Instant Pain Reliver for Canker Sores"},
{"name":"Sulfamethoxazole and Trimethoprim"},
{"name":"PAUL AND JOE SILKY SMOOTH FOUNDATION UV 100"},
{"name":"HAND AND NATURE SANITIZER"},
{"name":"Creon"},
{"name":"Carbamazepine"},
{"name":"Levothyroxine sodium"},
{"name":"Ibuprofen"},
{"name":"Cilostazol"},
{"name":"Lorazepam"},
{"name":"Metronidazole"},
{"name":"Divalproex Sodium"},
{"name":"RIte Aid"},
{"name":"Lemon Zest Antibacterial Foaming Hand Wash"},
{"name":"Metoprolol Tartrate"},
{"name":"Levetiracetam"},
{"name":"Abacavir"},
{"name":"Sertraline Hydrochloride"},
{"name":"Standardized Grass Pollen, Fescue, Meadow"},
{"name":"Extra Strength Pain Reliever"},
{"name":"LISINOPRIL AND HYDROCHLOROTHIAZIDE"},
{"name":"preferred plus arthritis pain"},
{"name":"TAMSULOSIN HYDROCHLORIDE"},
{"name":"Palmers Amaranth"},
{"name":"Covergirl Outlast Stay Fabulous 3in1 Foundation"},
{"name":"PROCHLORPERAZINE MALEATE"},
{"name":"Ranitidine Hydrochloride"},
{"name":"Acne Solution"},
{"name":"NALOXONE HYDROCHLORIDE"},
{"name":"health mart acid reducer"},
{"name":"Rat Epithelium"},
{"name":"Coppertone Tanning Dry Oil"},
{"name":"Mercaptopurine"},
{"name":"Neutrogena Healthy Skin Brightening Eye Perfector"},
{"name":"Instant Hand sanitizer"},
{"name":"Fruit Smoothies"},
{"name":"Nivea A Kiss of Vitamin Swirl Antioxidant Enriched Lip Care"},
{"name":"Cycloserine"},
{"name":"LES BEIGES"},
{"name":"OXY Clinical Advanced Treatment"},
{"name":"Phentermine Hydrochloride"},
{"name":"antibiotic and pain relief"},
{"name":"Platinum Cichorium"},
{"name":"Childrens Plus Multi-Symptom Cold Grape"},
{"name":"Secale Argentum Special Order"},
{"name":"Fenofibrate"},
{"name":"Progesterone"},
{"name":"Ondansetron"},
{"name":"Dove"},
{"name":"Serotonin"},
{"name":"Sucralfate"},
{"name":"ANTIMONIUM TARTARICUM"},
{"name":"Eucalyptus"},
{"name":"Trivora"},
{"name":"AMARANTHUS PALMERI POLLEN"},
{"name":"up and up acid reducer"},
{"name":"Ocean Potion Instant Dry 50 Mist Kids Sunscreen"},
{"name":"LBEL"},
{"name":"ECHINACEA PURPUREA"},
{"name":"West Wheat Grass"},
{"name":"Traumeel"},
{"name":"Good Neighbor Pharmacy Cold"},
{"name":"ARNISPORT"},
{"name":"Chest Cold"},
{"name":"Urtica Conchae"},
{"name":"Levofloxacin"},
{"name":"PediaCare Gas Relief Original"},
{"name":"JUVISYNC"},
{"name":"NUCYNTA"},
{"name":"Whitening"}]